BioStats Project: Dog Breeds
…
── Attaching core tidyverse packages ──────────────────────── tidyverse 2.0.0 ──
✔ dplyr     1.1.4     ✔ readr     2.1.5
✔ forcats   1.0.0     ✔ stringr   1.5.1
✔ ggplot2   3.5.1     ✔ tibble    3.2.1
✔ lubridate 1.9.4     ✔ tidyr     1.3.1
✔ purrr     1.0.2     
── Conflicts ────────────────────────────────────────── tidyverse_conflicts() ──
✖ dplyr::filter() masks stats::filter()
✖ dplyr::lag()    masks stats::lag()
ℹ Use the conflicted package (<http://conflicted.r-lib.org/>) to force all conflicts to become errors

breed_traits

# A tibble: 195 × 17
   Breed    Affectionate With Fa…¹ Good With Young Chil…² `Good With Other Dogs`
   <chr>                     <dbl>                  <dbl>                  <dbl>
 1 Retriev…                      5                      5                      5
 2 French …                      5                      5                      4
 3 German …                      5                      5                      3
 4 Retriev…                      5                      5                      5
 5 Bulldogs                      4                      3                      3
 6 Poodles                       5                      5                      3
 7 Beagles                       3                      5                      5
 8 Rottwei…                      5                      3                      3
 9 Pointer…                      5                      5                      4
10 Dachshu…                      5                      3                      4
# ℹ 185 more rows
# ℹ abbreviated names: ¹​`Affectionate With Family`, ²​`Good With Young Children`
# ℹ 13 more variables: `Shedding Level` <dbl>, `Coat Grooming Frequency` <dbl>,
#   `Drooling Level` <dbl>, `Coat Type` <chr>, `Coat Length` <chr>,
#   `Openness To Strangers` <dbl>, `Playfulness Level` <dbl>,
#   `Watchdog/Protective Nature` <dbl>, `Adaptability Level` <dbl>,
#   `Trainability Level` <dbl>, `Energy Level` <dbl>, `Barking Level` <dbl>, …
…
breed_rank_all

# A tibble: 195 × 11
   Breed `2013 Rank` `2014 Rank` `2015 Rank` `2016 Rank` `2017 Rank` `2018 Rank`
   <chr>       <dbl>       <dbl>       <dbl>       <dbl>       <dbl>       <dbl>
 1 Retr…           1           1           1           1           1           1
 2 Fren…          11           9           6           6           4           4
 3 Germ…           2           2           2           2           2           2
 4 Retr…           3           3           3           3           3           3
 5 Bull…           5           4           4           4           5           5
 6 Pood…           8           7           8           7           7           7
 7 Beag…           4           5           5           5           6           6
 8 Rott…           9          10           9           8           8           8
 9 Poin…          13          12          11          11          10           9
10 Dach…          10          11          13          13          13          12
# ℹ 185 more rows
# ℹ 4 more variables: `2019 Rank` <dbl>, `2020 Rank` <dbl>, links <chr>,
#   Image <chr>
…
Hypotheses

If there is truth to the idea of “Little Dog Syndrome,” then smaller dog breeds will score unfavorably for trait scores in openness to strangers, trainability, energy level, and barking level.

If there is truth to the social idea of big dogs being “Gentle Giants,” then larger dog breeds will score favorably in good with young children and other dogs, openness to strangers, and watchdog/protective nature.

Determining the Top 10 Large & Small Dog Breeds

The top 10 Large and Small dog breeds will be selected to narrow the data set. Dogs that are considered medium-sized will be ignored. The rankings from the most recent year included in the data set are what will be considered.

breed_rank_all %>%
  select("x2020_rank", breed)

# A tibble: 195 × 2
   x2020_rank breed                        
        <dbl> <chr>                        
 1          1 Retrievers (Labrador)        
 2          2 French Bulldogs              
 3          3 German Shepherd Dogs         
 4          4 Retrievers (Golden)          
 5          5 Bulldogs                     
 6          6 Poodles                      
 7          7 Beagles                      
 8          8 Rottweilers                  
 9          9 Pointers (German Shorthaired)
10         10 Dachshunds                   
# ℹ 185 more rows
…
