…
:::
:::

::: {.cell}

```{.r .cell-code}
breed_traits
```

::: {.cell-output .cell-output-stdout}

```
# A tibble: 195 × 17
   Breed    Affectionate With Fa…¹ Good With Young Chil…² `Good With Other Dogs`
   <chr>                     <dbl>                  <dbl>                  <dbl>
 1 Retriev…                      5                      5                      5
 2 French …                      5                      5                      4
 3 German …                      5                      5                      3
 4 Retriev…                      5                      5                      5
 5 Bulldogs                      4                      3                      3
 6 Poodles                       5                      5                      3
 7 Beagles                       3                      5                      5
 8 Rottwei…                      5                      3                      3
 9 Pointer…                      5                      5                      4
10 Dachshu…                      5                      3                      4
# ℹ 185 more rows
# ℹ abbreviated names: ¹​`Affectionate With Family`, ²​`Good With Young Children`
# ℹ 13 more variables: `Shedding Level` <dbl>, `Coat Grooming Frequency` <dbl>,
#   `Drooling Level` <dbl>, `Coat Type` <chr>, `Coat Length` <chr>,
#   `Openness To Strangers` <dbl>, `Playfulness Level` <dbl>,
#   `Watchdog/Protective Nature` <dbl>, `Adaptability Level` <dbl>,
#   `Trainability Level` <dbl>, `Energy Level` <dbl>, `Barking Level` <dbl>, …
```
…
:::
:::

::: {.cell}

```{.r .cell-code}
breed_rank_all
```

::: {.cell-output .cell-output-stdout}

```
# A tibble: 195 × 11
   Breed `2013 Rank` `2014 Rank` `2015 Rank` `2016 Rank` `2017 Rank` `2018 Rank`
   <chr>       <dbl>       <dbl>       <dbl>       <dbl>       <dbl>       <dbl>
 1 Retr…           1           1           1           1           1           1
 2 Fren…          11           9           6           6           4           4
 3 Germ…           2           2           2           2           2           2
 4 Retr…           3           3           3           3           3           3
 5 Bull…           5           4           4           4           5           5
 6 Pood…           8           7           8           7           7           7
 7 Beag…           4           5           5           5           6           6
 8 Rott…           9          10           9           8           8           8
 9 Poin…          13          12          11          11          10           9
10 Dach…          10          11          13          13          13          12
# ℹ 185 more rows
# ℹ 4 more variables: `2019 Rank` <dbl>, `2020 Rank` <dbl>, links <chr>,
#   Image <chr>
```
…
The top 10 Large and Small dog breeds will be selected to narrow the data set. Dogs that are considered medium-sized will be ignored. The rankings from the most recent year included in the data set are what will be considered.



::: {.cell}

```{.r .cell-code}
breed_rank_all %>%
  select("x2020_rank", breed)
```

::: {.cell-output .cell-output-stdout}

```
# A tibble: 195 × 2
   x2020_rank breed                        
        <dbl> <chr>                        
 1          1 Retrievers (Labrador)        
 2          2 French Bulldogs              
 3          3 German Shepherd Dogs         
 4          4 Retrievers (Golden)          
 5          5 Bulldogs                     
 6          6 Poodles                      
 7          7 Beagles                      
 8          8 Rottweilers                  
 9          9 Pointers (German Shorthaired)
10         10 Dachshunds                   
# ℹ 185 more rows
```
…
